
[
  {
    "name": "Fresh Meat",
    "description": "Complete all tutorials"
  },
  {
    "name": "Indiana Jones",
    "description": "Complete all Tomb Mazes"
  },
  {
    "name": "Gladiator",
    "description": "Complete all Tomb Arenas"
  },
  {
    "name": "POWER!!",
    "description": "Unlock Cheat Mode"
  },
  {
    "name": "Bullet Time",
    "description": "Kill more than 5 enemies during one slow-mo ability use"
  },
  {
    "name": "Let's Go Bowling",
    "description": "Throw 10 enemies at other enemies in a single Tomb Maze or Arena"
  },
  {
    "name": "Heavy Swing",
    "description": "Kill 3 enemies in one swing of a weapon"
  },
  {
    "name": "Juggler",
    "description": "Achieve a 10 hit aerial combo on a single enemy"
  },
  {
    "name": "THIS IS SPARTA!",
    "description": "Knock or throw 15 enemies down into the pits in a single Tomb Maze"
  },
  {
    "name": "Last Shadow",
    "description": "Kill 10 enemies using jumping attacks in a single Tomb Maze or Arena"
  },
  {
    "name": "Gotcha!",
    "description": "Kill 15 enemies with environmental hazards in a single Tomb Maze"
  },
  {
    "name": "Rip N' Tear",
    "description": "Dismember 10 skeletons with your hands in a single Tomb Maze or Arena"
  },
  {
    "name": "Executioner",
    "description": "Kill 10 enemies by decapitation in a single Tomb Maze or Arena"
  },
  {
    "name": "Cutthroat",
    "description": "Kill 10 enemies by slitting their throats in a single Tomb Maze or Arena"
  },
  {
    "name": "Tis' Just a Flesh Wound",
    "description": "Kill 10 enemies by cutting off a limb in a single Tomb Maze or Arena"
  },
  {
    "name": "Hardcore Parkour",
    "description": "Complete the Parkour Tomb Maze with no falling damage"
  },
  {
    "name": "I'll Live",
    "description": "Complete a Tomb Maze without using a Health or MP Crystal"
  },
  {
    "name": "Only Human",
    "description": "Complete a Tomb Maze without using stat upgrades, curse altars, or weapon upgrades"
  },
  {
    "name": "Mortal",
    "description": "Complete a Tomb Maze or Arena using zero MP"
  },
  {
    "name": "Magician",
    "description": "Complete a Tomb Maze or Arena using only MP attacks (No guns)"
  },
  {
    "name": "Float Like a Butterfly",
    "description": "Complete a Tomb Maze or Arena using only your hands"
  },
  {
    "name": "Down But Not Out",
    "description": "Complete a Tomb Maze or Arena using only one hand"
  },
  {
    "name": "Rocky Road",
    "description": "Complete a Tomb Maze or Arena using only Rocky"
  },
  {
    "name": "Give It a Toss",
    "description": "Complete a Tomb Maze or Arena by only throwing weapons"
  },
  {
    "name": "Marksman",
    "description": "Complete a Tomb Maze or Arena using only ranged weapons"
  },
  {
    "name": "Walk Softly and Carry a Big Sword",
    "description": "Complete a Tomb Maze or Arena using only large/long swords"
  },
  {
    "name": "Cap' Would Be Proud",
    "description": "Complete a Tomb Maze or Arena using only shields"
  },
  {
    "name": "ZOMBIES!",
    "description": "Complete a Tomb Maze or Arena with head hits/shots only"
  },
  {
    "name": "Resourceful",
    "description": "Complete a Tomb Maze or Arena using your first four weapons only "
  },
  {
    "name": "Precision",
    "description": "Complete a Tomb Maze or Arena using only two weapons"
  },
  {
    "name": "Avengers Assemble",
    "description": "Complete a Tomb Maze or Arena using only Captain America's Shield, Thor's Hammer and hands"
  },
  {
    "name": "Samurai Jack",
    "description": "Complete a Tomb Maze or Arena using only one sword and hands"
  },
  {
    "name": "Lumberjack",
    "description": "Complete a Tomb Maze or Arena using only one axe and hands"
  },
  {
    "name": "The Great Bambino",
    "description": "Complete a Tomb Maze or Arena using only one blunt weapon and hands"
  },
  {
    "name": "Scavenger",
    "description": "Complete a Tomb Maze or Arena using only enemy dropped weapons and/or weapons from chests"
  },
  {
    "name": "Starting Character",
    "description": "Complete a Tomb Maze or Arena with a class from the Battle Talent Challenges"
  },
  {
    "name": "Jack of All Trades",
    "description": "Complete a Tomb Maze or Arena with 10 different classes from the Battle Talent Challenges"
  },
  {
    "name": "Master of the Universe",
    "description": "Complete a Tomb Maze or Arena with all of the classes from the Battle Talent Challenges"
  },
  {
    "name": "Balin's Tomb",
    "description": "Complete Parkour Maze or Arena Level II using only Lord of the Rings weapons"
  },
  {
    "name": "Jabba's Palace",
    "description": "Complete Parkour Maze or Arena Level II using only lightsabers (no red)"
  },
  {
    "name": "The Dark Side",
    "description": "Complete Parkour Maze or Arena Level II using only lightsabers (only red)"
  },
  {
    "name": "Goblin Slayer",
    "description": "Complete Parkour Maze or Arena Level II using only anime-based weapons"
  },
  {
    "name": "The Classics",
    "description": "Complete Parkour Maze or Arena Level II using only the base game weapons"
  },
  {
    "name": "Phew, That Was Close",
    "description": "Complete a Tomb Maze without being hit"
  },
  {
    "name": "Can't Touch This",
    "description": "Complete all Tomb Mazes without being hit"
  },
  {
    "name": "Champion",
    "description": "Complete a Tomb Arena without being hit"
  },
  {
    "name": "Maximus",
    "description": "Complete all Tomb Arenas without being hit"
  }
]
